…
      na.omit()  %>%
      #omit the redundant observations
    
      mutate(sports_balls = as.integer(sports_balls))
      #convert sports balls to an integer variable
  
  trashwheel_data
```

    ## # A tibble: 285 x 14
    ##    dumpster month  year date                weight volume plastic_bottles
    ##       <dbl> <chr> <dbl> <dttm>               <dbl>  <dbl>           <dbl>
    ##  1        1 May    2014 2014-05-16 00:00:00   4.31     18            1450
    ##  2        2 May    2014 2014-05-16 00:00:00   2.74     13            1120
    ##  3        3 May    2014 2014-05-16 00:00:00   3.45     15            2450
    ##  4        4 May    2014 2014-05-17 00:00:00   3.1      15            2380
    ##  5        5 May    2014 2014-05-17 00:00:00   4.06     18             980
    ##  6        6 May    2014 2014-05-20 00:00:00   2.71     13            1430
    ##  7        7 May    2014 2014-05-21 00:00:00   1.91      8             910
    ##  8        8 May    2014 2014-05-28 00:00:00   3.7      16            3580
    ##  9        9 June   2014 2014-06-05 00:00:00   2.52     14            2400
    ## 10       10 June   2014 2014-06-11 00:00:00   3.76     18            1340
    ## # ... with 275 more rows, and 7 more variables: polystyrene <dbl>,
    ## #   cigarette_butts <dbl>, glass_bottles <dbl>, grocery_bags <dbl>,
    ## #   chip_bags <dbl>, sports_balls <int>, homes_powered <dbl>
…
    precip_data=
      bind_rows(precip2017_data, precip2016_data) %>%
      janitor::clean_names()  %>%
      mutate(month = month.name[month])
      #append the datasets, clean the names and convert month to a character variable
  
    precip_data
```

    ## # A tibble: 24 x 3
    ##    month     total  year
    ##    <chr>     <dbl> <dbl>
    ##  1 January    2.34  2017
    ##  2 February   1.46  2017
    ##  3 March      3.57  2017
    ##  4 April      3.99  2017
    ##  5 May        5.64  2017
    ##  6 June       1.4   2017
    ##  7 July       7.09  2017
    ##  8 August     4.44  2017
    ##  9 September  1.95  2017
    ## 10 October    0     2017
    ## # ... with 14 more rows
…
``` r
brfss_smart2010 %>%
  janitor::clean_names()  %>%
  filter(topic=="Overall Health")   %>%
  select(year,locationabbr, locationdesc, response, data_value)
```

    ## # A tibble: 10,625 x 5
    ##     year locationabbr locationdesc          response  data_value
    ##    <int> <chr>        <chr>                 <chr>          <dbl>
    ##  1  2010 AL           AL - Jefferson County Excellent       18.9
    ##  2  2010 AL           AL - Jefferson County Very good       30  
    ##  3  2010 AL           AL - Jefferson County Good            33.1
    ##  4  2010 AL           AL - Jefferson County Fair            12.5
    ##  5  2010 AL           AL - Jefferson County Poor             5.5
    ##  6  2010 AL           AL - Mobile County    Excellent       15.6
    ##  7  2010 AL           AL - Mobile County    Very good       31.3
    ##  8  2010 AL           AL - Mobile County    Good            31.2
    ##  9  2010 AL           AL - Mobile County    Fair            15.5
    ## 10  2010 AL           AL - Mobile County    Poor             6.4
    ## # ... with 10,615 more rows

``` r
brfss_smart2010
```

    ## # A tibble: 134,203 x 23
    ##     Year Locationabbr Locationdesc Class Topic Question Response
    ##    <int> <chr>        <chr>        <chr> <chr> <chr>    <chr>   
    ##  1  2010 AL           AL - Jeffer~ Heal~ Over~ How is ~ Excelle~
    ##  2  2010 AL           AL - Jeffer~ Heal~ Over~ How is ~ Very go~
    ##  3  2010 AL           AL - Jeffer~ Heal~ Over~ How is ~ Good    
    ##  4  2010 AL           AL - Jeffer~ Heal~ Over~ How is ~ Fair    
    ##  5  2010 AL           AL - Jeffer~ Heal~ Over~ How is ~ Poor    
    ##  6  2010 AL           AL - Jeffer~ Heal~ Fair~ Health ~ Good or~
    ##  7  2010 AL           AL - Jeffer~ Heal~ Fair~ Health ~ Fair or~
    ##  8  2010 AL           AL - Jeffer~ Heal~ Heal~ Do you ~ Yes     
    ##  9  2010 AL           AL - Jeffer~ Heal~ Heal~ Do you ~ No      
    ## 10  2010 AL           AL - Jeffer~ Heal~ Unde~ Adults ~ Yes     
    ## # ... with 134,193 more rows, and 16 more variables: Sample_Size <int>,
    ## #   Data_value <dbl>, Confidence_limit_Low <dbl>,
    ## #   Confidence_limit_High <dbl>, Display_order <int>,
    ## #   Data_value_unit <chr>, Data_value_type <chr>,
    ## #   Data_Value_Footnote_Symbol <chr>, Data_Value_Footnote <chr>,
    ## #   DataSource <chr>, ClassId <chr>, TopicId <chr>, LocationID <chr>,
    ## #   QuestionID <chr>, RESPID <chr>, GeoLocation <chr>
